{
  "name": "pdbh58q-c4rd7vv",
  "arn": "arn:aws:iam::706054169063:role/pdbh58q-c4rd7vv",
  "service": [
    "lambda.amazonaws.com",
    "edgelambda.amazonaws.com"
  ],
  "policy": {
    "Version": "2012-10-17",
    "Statement": [
      {
        "Effect": "Allow",
        "Resource": "*",
        "Action": [
          "logs:CreateLogGroup",
          "logs:CreateLogStream",
          "logs:PutLogEvents"
        ]
      },
      {
        "Effect": "Allow",
        "Resource": "arn:aws:s3:::pdbh58q-134xjoc/*",
        "Action": [
          "s3:GetObject",
          "s3:PutObject"
        ]
      }
    ]
  },
  "region": "us-east-1"
}